%YAML 1.1
%TAG !u! tag:unity3d.com,2011:
--- !u!114 &11400000
MonoBehaviour:
  m_ObjectHideFlags: 0
  m_CorrespondingSourceObject: {fileID: 0}
  m_PrefabInstance: {fileID: 0}
  m_PrefabAsset: {fileID: 0}
  m_GameObject: {fileID: 0}
  m_Enabled: 1
  m_EditorHideFlags: 0
  m_Script: {fileID: 11500000, guid: 7a51f89996446e0498a15a9f7d115f37, type: 3}
  m_Name: p2
  m_EditorClassIdentifier: 
  point1: {x: 10, y: -86.12881, z: 55}
  point2: {x: 10, y: -86.12881, z: 120}
  patrolling: 1
