%YAML 1.1
%TAG !u! tag:unity3d.com,2011:
--- !u!114 &11400000
MonoBehaviour:
  m_ObjectHideFlags: 0
  m_CorrespondingSourceObject: {fileID: 0}
  m_PrefabInstance: {fileID: 0}
  m_PrefabAsset: {fileID: 0}
  m_GameObject: {fileID: 0}
  m_Enabled: 1
  m_EditorHideFlags: 0
  m_Script: {fileID: 11500000, guid: 762c0bd8779de76429d07878beabee1c, type: 3}
  m_Name: Rifle
  m_EditorClassIdentifier: 
  nombre: Rifle
  velocidadDisparo: 500
  prefab: {fileID: 8869943634414455287, guid: 3c652805899839543aa8237bd240203c, type: 3}
